<?xml version="1.0" encoding="utf-8"?>
<!-- Generator: Adobe Illustrator 19.0.0, SVG Export Plug-In . SVG Version: 6.00 Build 0)  -->
<svg version="1.1" id="Layer_1" xmlns="http://www.w3.org/2000/svg" xmlns:xlink="http://www.w3.org/1999/xlink" x="0px" y="0px"
	 viewBox="-188 281 222 40" style="enable-background:new -188 281 222 40;" xml:space="preserve">
<style type="text/css">
	.st0{fill:#231F20;}
	.st1{fill:#00AC9A;}
	.st2{fill:#058E7D;}
	.st3{fill:#FFFFFF;}
</style>
<g>
	<g>
		<path class="st0" d="M-122.2,306.8c0-4.8,3.6-8.5,8.5-8.5c3.1,0,5.9,1.6,7.3,4.1l-4.2,2.4c-0.5-1.1-1.7-1.8-3.1-1.8
			c-2.1,0-3.6,1.5-3.6,3.7c0,2.2,1.5,3.7,3.6,3.7c1.4,0,2.6-0.7,3.1-1.8l4.2,2.4c-1.4,2.5-4.1,4.1-7.3,4.1
			C-118.6,315.3-122.2,311.6-122.2,306.8z"/>
		<path class="st0" d="M33.4,298.8v16.1h-4.8v-1.5c-1.1,1.2-2.6,2-4.8,2c-4.2,0-7.7-3.7-7.7-8.5c0-4.8,3.5-8.5,7.7-8.5
			c2.2,0,3.7,0.7,4.8,2v-1.5H33.4z M28.6,306.8c0-2.4-1.6-3.9-3.8-3.9s-3.8,1.5-3.8,3.9c0,2.4,1.6,3.9,3.8,3.9
			S28.6,309.2,28.6,306.8z"/>
		<path class="st0" d="M-105.5,291.4h4.8v23.4h-4.8V291.4z"/>
		<path class="st0" d="M-98.9,306.8c0-4.8,3.8-8.5,8.5-8.5s8.5,3.7,8.5,8.5c0,4.8-3.8,8.5-8.5,8.5S-98.9,311.6-98.9,306.8z
			 M-86.7,306.8c0-2.3-1.6-3.8-3.7-3.8c-2.1,0-3.7,1.5-3.7,3.8c0,2.3,1.6,3.8,3.7,3.8C-88.3,310.6-86.7,309.1-86.7,306.8z"/>
		<path class="st0" d="M-64.9,298.8v16.1h-4.8v-1.5c-0.9,1.2-2.5,2-4.6,2c-3.2,0-6-2.3-6-6.6v-9.9h4.8v9.1c0,2,1.3,2.9,2.8,2.9
			c1.8,0,3-1,3-3.3v-8.8H-64.9z"/>
		<path class="st0" d="M-45.9,292.4v22.5h-4.8v-1.5c-1.1,1.2-2.6,2-4.8,2c-4.2,0-7.7-3.7-7.7-8.5c0-4.8,3.5-8.5,7.7-8.5
			c2.2,0,3.7,0.7,4.8,2v-7.9H-45.9z M-50.7,306.8c0-2.4-1.6-3.9-3.8-3.9c-2.2,0-3.8,1.5-3.8,3.9c0,2.4,1.6,3.9,3.8,3.9
			C-52.3,310.7-50.7,309.2-50.7,306.8z"/>
		<path class="st0" d="M-19.2,305v9.9h-4.8v-9.4c0-1.6-0.8-2.6-2.3-2.6c-1.6,0-2.5,1.1-2.5,3v9.1h-4.8v-9.4c0-1.6-0.8-2.6-2.3-2.6
			c-1.6,0-2.5,1.1-2.5,3v9.1h-4.8v-16.1h4.8v1.5c0.7-1.1,2.2-1.9,4.3-1.9c1.9,0,3.3,0.8,4.2,2.1c0.9-1.3,2.4-2.1,4.7-2.1
			C-21.6,298.3-19.2,301-19.2,305z"/>
		<path class="st0" d="M-17.4,294.5c0-1.6,1.3-2.9,2.9-2.9c1.6,0,2.9,1.3,2.9,2.9c0,1.6-1.3,2.9-2.9,2.9
			C-16.1,297.4-17.4,296.1-17.4,294.5z M-16.9,298.8h4.8v16.1h-4.8V298.8z"/>
		<path class="st0" d="M7,292.4v22.5H2.1v-1.5c-1.1,1.2-2.6,2-4.8,2c-4.2,0-7.7-3.7-7.7-8.5c0-4.8,3.5-8.5,7.7-8.5
			c2.2,0,3.7,0.7,4.8,2v-7.9H7z M2.1,306.8c0-2.4-1.6-3.9-3.8-3.9c-2.2,0-3.8,1.5-3.8,3.9c0,2.4,1.6,3.9,3.8,3.9
			C0.5,310.7,2.1,309.2,2.1,306.8z"/>
		<path class="st0" d="M9,294.5c0-1.6,1.3-2.9,2.9-2.9s2.9,1.3,2.9,2.9c0,1.6-1.3,2.9-2.9,2.9S9,296.1,9,294.5z M9.5,298.8h4.8v16.1
			H9.5V298.8z"/>
	</g>
	<g>
		<path class="st1" d="M-144,287.2c-0.3,0-0.6,0-1,0c-3.2-3.6-7.6-5.6-12.4-5.6c-4.8,0-9.2,2-12.4,5.6c-0.3,0-0.7,0-1,0
			c-9.2,0-16.6,7.5-16.6,16.6c0,9.2,7.5,16.6,16.6,16.6h26.8c9.2,0,16.6-7.5,16.6-16.6C-127.4,294.6-134.8,287.2-144,287.2z"/>
		<path class="st2" d="M-128.9,310.8l-17.7-10.2h0c2.2,1.2,2.2,4.3,0,5.6l-15.1,8.7c-1.1,0.6-2.3,0.5-3.2,0l9.6,5.5h11.4
			C-137.3,320.4-131.6,316.4-128.9,310.8z"/>
		<path class="st3" d="M-161.7,291.8l15.1,8.7c2.2,1.2,2.2,4.3,0,5.6l-15.1,8.7c-2.2,1.2-4.8-0.3-4.8-2.8v-17.4
			C-166.6,292.1-163.9,290.6-161.7,291.8z"/>
	</g>
</g>
</svg>
